﻿{
  "Routes": [
    {
      "DownstreamPathTemplate": "/api/events",
      "DownstreamScheme": "http",
      "DownstreamHostAndPorts": [
        {
          "Host": "192.168.80.10",
          "Port": 8080
        }
      ],
      "UpstreamPathTemplate": "/api/events",
      "UpstreamHttpMethod": [ "GET" ]
    },
    {
      "DownstreamPathTemplate": "/api/events/{eventId}",
      "DownstreamScheme": "http",
      "DownstreamHostAndPorts": [
        {
          "Host": "192.168.80.10",
          "Port": 8080
        }
      ],
      "UpstreamPathTemplate": "/api/events/{eventId}",
      "UpstreamHttpMethod": [ "GET" ]
    },
    {
      "DownstreamPathTemplate": "/api/places",
      "DownstreamScheme": "http",
      "DownstreamHostAndPorts": [
        {
          "Host": "192.168.80.10",
          "Port": 9000
        }
      ],
      "UpstreamPathTemplate": "/api/places",
      "UpstreamHttpMethod": [ "GET" ]
    },
    {
      "DownstreamPathTemplate": "/api/places/{placeId}",
      "DownstreamScheme": "http",
      "DownstreamHostAndPorts": [
        {
          "Host": "192.168.80.10",
          "Port": 9000
        }
      ],
      "UpstreamPathTemplate": "/api/places/{placeId}",
      "UpstreamHttpMethod": [ "GET" ]
    },
    {
      "DownstreamPathTemplate": "/api/organizers",
      "DownstreamScheme": "http",
      "DownstreamHostAndPorts": [
        {
          "Host": "192.168.80.10",
          "Port": 9090
        }
      ],
      "UpstreamPathTemplate": "/api/organizers",
      "UpstreamHttpMethod": [ "GET" ]
    },
    {
      "DownstreamPathTemplate": "/api/organizers/{organizerId}",
      "DownstreamScheme": "http",
      "DownstreamHostAndPorts": [
        {
          "Host": "192.168.80.10",
          "Port": 9090
        }
      ],
      "UpstreamPathTemplate": "/api/organizers/{organizerId}",
      "UpstreamHttpMethod": [ "GET" ]
    }
  ]
}

